Checking and updating Chart 2
…
sht |> 
  mutate(finyear_start = lubridate::my(Year))

# A tibble: 28 × 16
   Year     Total number of dwel…¹ Total number of occu…² Total number of vaca…³
   <chr>                     <dbl>                  <dbl>                  <dbl>
 1 Decembe…                  2193                     NA                    NA  
 2 Decembe…                  2210                     NA                    NA  
 3 Decembe…                  2230                     NA                    NA  
 4 Decembe…                  2248                     NA                    NA  
 5 Decembe…                  2266                     NA                    NA  
 6 Decembe…                  2283                     NA                    NA  
 7 Decembe…                  2303                     NA                    NA  
 8 Decembe…                  2322                     NA                    NA  
 9 March 2…                  2312.                  2212.                   99.6
10 March 2…                  2329.                  2229.                  100. 
# ℹ 18 more rows
# ℹ abbreviated names: ¹​`Total number of dwellings (000s)`,
#   ²​`Total number of occupied dwellings (000s)`,
#   ³​`Total number of vacant dwellings (000s)`
# ℹ 12 more variables:
#   `Privately owned dwellings | Total number occupied dwellings` <dbl>,
#   `Privately owned dwellings | Owner occupied | Number` <dbl>, …

The categories are different to previous version. No distinction between with and without mortgate. But let’s see what it shows regardless:

sht |> 
  pivot_longer(-Year, names_to = "Category", values_to = "value")

# A tibble: 392 × 3
   Year          Category                                                  value
   <chr>         <chr>                                                     <dbl>
 1 December 1993 Total number of dwellings (000s)                        2193   
 2 December 1993 Total number of occupied dwellings (000s)                 NA   
 3 December 1993 Total number of vacant dwellings (000s)                   NA   
 4 December 1993 Privately owned dwellings | Total number occupied dwel…   NA   
 5 December 1993 Privately owned dwellings | Owner occupied | Number     1217   
 6 December 1993 Privately owned dwellings | Owner occupied | Percentage   55.5 
 7 December 1993 Privately owned dwellings | Rented property with a job…  154   
 8 December 1993 Privately owned dwellings | Rented property with a job…    7.02
 9 December 1993 Privately owned dwellings | Vacant private dwellings a…   NA   
10 December 1993 Privately owned dwellings | Vacant private dwellings a…   NA   
# ℹ 382 more rows
…
